From;To;Type;Through;start_x;start_y;stop_x;stop_y;Comment
1369;1359;river_large;5742;-1;-1;-1;-1;Chateau-Gaillard-Pacy-sur-Eure
1356;1363;river_large;5950;-1;-1;-1;-1;Tancarville-Harcourt
-1;-1;;-1;-1;-1;-1;-1;